1,abintcli,Yes,Anastasia,Bintcliffe,Anastasia Bintcliffe,,bintcliffe.a@gmail.com,abintcli@student.42.fr,27827354127,2/29/1996,20,9602290049083,,White,South Africa,,,English,CapeTown,None,Grade12,9602290049083,female,Google,2,February,okinterview,No,Yes,
2,aburroug,Yes,Angus,Burroughs,Angus Burroughs,,angusburroughs@gmail.com,aburroug@student.42.fr,27739955224,24-Jul-1997,19,,,White,South Africa,No,Yes,,,,,,male,Other,1,March,Yes,Yes,Yes,
3,adegenaa,Yes,Adrian,Degenaar,Adrian Degenaar,,adriandegenaar69@gmail.com,adegenaa@student.42.fr,27738031448,30-Oct-1982,34,8210305056084,,White,South Africa,,Yes,,Pinetown,,,,male,,7,February,OKInterview,Yes,Yes,
4,adippena,Yes,Angus,Dippenaar,Angus Dippenaar,,angusdippenaar@gmail.com,adippena@student.42.fr,27836075759,20-Dec-1996,20,9612205169082,,White,South Africa,,Yes,English,Sandton,None,Matric,9612205169082,male,0,1,February,Yes,Yes,Yes,
5,amarquez,Yes,Andre,Marquez,Andre Marquez,,andreantoniomarques19@gmail.com,amarquez@student.42.fr,27719832562,24-Nov-1995,21,9511245165086,,Coloured,South Africa,,Yes,English,Primrose,YolandaInteriors,Matric,9511245165086,male,Other,14,February,Yes,Yes,Yes,
6,antricht,Yes,Claris,Richter,Claris Richter,,claris.richter@gmail.com,antricht@student.42.fr,27712742481,27-Oct-1997,19,,,White,South Africa,,Yes,Afrikaans,Alberton,None,Matric,9710275146087,male,NewsArticle,15,January,Yes,No,Yes,
7,apedra,Yes,Andrew,Pedra,Andrew Pedra,,andrewpedra@gmail.com,apedra@student.42.fr,27614368072,24-Jan-1994,23,,,White,South Africa,,Yes,,Germiston,,,,male,,9,January,Yes,Yes,Yes,
8,arnovan-,Yes,Arno,van Wyk,Arno van Wyk,,arno.vanwyk1987@gmail.com,arnovan-@student.42.fr,27767963905,5-Nov-1987,29,8711055065084,,White,South Africa,,No,English,Roodepoort,SAB,Matric,8711055065084,male,NewsArticle,11,February,Yes,Yes,Yes,
9,aswanepo,Yes,Arno,Swanepoel,Arno Swanepoel,,spiderdoors@gmail.com,aswanepo@student.42.fr,27815772519,,117,8108315118086,,White,South Africa,,Yes,Afrikaans,,,,,male,Other,19,March,Waiting list,Yes,Yes,
10,bdiale,Yes,Botshelo,Diale,Botshelo Diale,,youngtrendz@gmail.com,bdiale@student.42.fr,27713661981,,117,8612115466082,,Black,South Africa,,Yes,,Annlin,,,,male,,14,January,OKInterview,Yes,Yes,
11,bsaunder,Yes,Brian,Saunders,Brian Saunders,,brian.saunders0@gmail.com,bsaunder@student.42.fr,27828502284,27-Dec-1978,38,,,White,South Africa,,Yes,,,,,,male,,10,January,Yes,Yes,Yes,
12,cdebruyn,Yes,Cameron,de Bruyn,Cameron de Bruyn,,debruyn.sarel@gmail.com,cdebruyn@student.42.fr,27782056082,18-Sep-1992,24,9209185053087,,White,South Africa,,Yes,,,,,,male,Google,3,March,OKInterview,Yes,Yes,
13,chtheron,Yes,Charl,Theron,Charl Theron,,charltheron26@gmail.com,chtheron@student.42.fr,27763226868,26-Jun-1992,25,920626 5015 08 5,,White,South Africa,,No,,SouthHills,,,,male,,5,January,OKInterview,Yes,Yes,
14,cmayo,Yes,Craig,Mayo,Craig Mayo,,craig@cwebsol.co.za,cmayo@student.42.fr,27629291339,15-Aug-1995,21,9508155190088,,White,South Africa,,Yes,,Durban,,,,male,,9,February,OKInterview,Yes,Yes,
15,cradebe,,Colin,Radebe,Colin Radebe,,colinradebe@gmail.com,cradebe@student.42.fr,27611109324,27-Dec-1987,29,8712275270082,,Black,South Africa,,Yes,,Roodepoort,,,,male,,3,January,OKInterview,Yes,Yes,
16,daviwel,Yes,David,Welman,David Welman,,dwelman2704@gmail.com,daviwel@student.42.fr,27825796610,27-Apr-1997,20,9704276283080,,White,South Africa,,Yes,English,Fourways,None,Matric,9704276283080,male,Other,13,January,Yes,Yes,Yes,
17,ddu-toit,Yes,Dean,duToit,Dean duToit,,dean100@live.co.za,ddu-toit@student.42.fr,27813295002,18-May-1994,23,9405185130087,,White,South Africa,,Yes,Afrikaans,Randburg,JCITSolutions,Matric,9405185130087,male,Facebook,7,February,Yes,Yes,Yes,
18,dkrusche,Yes,Kruschev,Dehal,Kruschev Dehal,,dehal@telkomsa.net,dkrusche@student.42.fr,27746220690,22-Jun-1990,27,9006225444080,,Black,South Africa,,Yes,,,,,,male,Other,8,March,Yes,Yes,Yes,
19,dmather,Yes,Dillon,Mather,Dillon Mather,,radc@hotmail.co.za,dmather@student.42.fr,27612376060,24-Jan-1998,19,9801245014081,,Black,South Africa,,Yes,,Pietermaritzburg,,,,male,,4,January,Yes,Yes,yes,
20,dnematan,Yes,Dakalo,Nematandani,Dakalo Nematandani,,dakalo.nematat@gmail.com,dnematan@student.42.fr,27725007281,27-Sep-1993,23,9309276200082,,Black,South Africa,,Yes,,,,,,male,Other,12,March,Yes,Yes,Yes,
21,edorland,Yes,Eben,Dorland,Eben Dorland,,eben.dorland@gmail.com,edorland@student.42.fr,27746407108,21-May-1997,20,,,White,South Africa,,?,Afrikaans,CapeTown,None,Matric,9705215239083,male,Other,16,February,Yes,No,Yes,
22,ehansman,Yes,Eartha,Hansmann,Eartha Hansmann,,earthanaylor@gmail.com,ehansman@student.42.fr,27837076448,3/31/1997,20,9703310608088,,White,,,,,,,,,female,Other,19,January,Yes,Yes,Yes,Yes
23,emmmhla,Yes,Emmanuel,Mhlaba,Emmanuel Mhlaba,,ebimhlaba@gmail.com,emmmhla@student.42.fr,27820850166,2-Dec-1997,19,9712025555088,,Black,South Africa,,Yes,Tsonga,Boksburg,None,Matric,9712025555088,male,Other,8,February,Yes,Yes,Yes,
24,emsimang,Yes,Excellent,Msimango,Excellent Msimango,,pcheerza@gmail.com,emsimang@student.42.fr,27740765931,29-Sep-1993,23,930929 5769 083,,Black,South Africa,,Yes,IsiZulu,Umzumbe,None,Grade12,9309295769083,male,Facebook,21,January,okinterview,Yes,Yes,
25,fscheepe,Yes,Franco,Scheepers,Franco Scheepers,,francoscheepersmail@gmail.com,fscheepe@student.42.fr,27738758657,9-Mar-1995,22,9503095071084,,White,South Africa,,No,AFrikaans,Centurion,None,Grade12,9503095071084,male,Google,20,January,okinterview,Yes,Yes,
26,fseedat,Yes,Faheem,Seedat,Faheem Seedat,,fseedat7@gmail.com,fseedat@student.42.fr,27718779693,,117,9005175218080,,Indian,South Africa,,Yes,English,Lenasia,AngusElectronics,DiplomainITNetworking,9005175218080,male,NewsArticle,18,February,Yes,Yes,Yes,
27,ggroener,Yes,Gabriel,Groener,Gabriel Groener,,gabriel.groener@gmail.com,ggroener@student.42.fr,27732630917,14-Jul-1991,26,9107145123083,,Coloured,South Africa,,Yes,English,Roodepoort,None,Matric,9107145123083,male,Other,22,February,Yes,Yes,Yes,
28,ghavenga,Yes,Gregory,Havenga,Gregory Havenga,,gregory.havenga@gmail.com,ghavenga@student.42.fr,27794411473,30-Dec-1995,21,9512305185089,,White,South Africa,,Yes,English,KemptonPark,None,Matric,,male,Other,10,January,Yes,Yes,Yes,
29,gkambuyl,Yes,Gladwin,Kambuyle,Gladwin Kambuyle,,hairukun@gmail.com,gkambuyl@student.42.fr,27813067802,23-Feb-1981,36,810 223 552 108 1,,Coloured,South Africa,,Yes,,,,,,male,Other,10,February,OKInterview,Yes,Yes,Yes
30,gkekana,Yes,Gontse,Kekana,Gontse Kekana,,gontsekekana@yandex.com,gkekana@student.42.fr,27766730258,21-Nov-1992,24,9211215168083,,Black,South Africa,,Yes,,,,,,male,News Article,3,March,Yes,Yes,Yes,
31,gmofoken,Yes,Gomotso,Mofokeng,Gomotso Mofokeng,,gabinmofokeng@gmail.com,gmofoken@student.42.fr,27840781990,30-Nov-1991,25,9111305673085,,Black,South Africa,,Yes,,Arcadia,,,,male,Harambee,22,February,OKInterview,Yes,Yes,
32,gmojela,Yes,Gerald,Mojela,Gerald Mojela,,gerald.mojela@gmail.com,gmojela@student.42.fr,27714242720,18-Jul-1982,35,8207185269084,,Black,South Africa,,Yes,,,,,,male,,4,February,OKInterview,Yes,Yes,
33,goisetsi,Yes,Goitsemang (Billy),Setsiba,Goitsemang Setsiba,,zephyrcandy@gmail.com,goisetsi@student.42.fr,27845763822,18-May-1994,23,9405185346089,,Black,South Africa,,Yes,Tswana,Soweto,None,Matric,9405185346089,male,Other,20,January,Yes,Yes,Yes,
34,itolmay,Yes,Ian,Tolmay,Ian Tolmay,,iantolmay@mweb.co.za,itolmay@student.42.fr,27828563276,31-Aug-1995,21,9508315082084,,White,South Africa,,Yes,Afrikaans,ConstatianKloof,None,Grade12,9508315082084,male,Planet10,11,February,Yes,Yes,Yes,
35,janhoon,Yes,Jan-Hendrik,Hoon,Jan-Hendrik Hoon,,janhoon97@gmail.com,janhoon@student.42.fr,27769679493,18-Mar-1997,20,,,White,South Africa,,Yes,Afrikaans,MarshallTown,None,Grade12,9703185197084,male,Other,18,February,Yes,Yes,Yes,
36,jbuys,Yes,Johann,Buys,Johann Buys,,johann.buys97@gmail.com,jbuys@student.42.fr,27622913574,20-May-1997,20,9705205471084,,White,South Africa,,Yes,,,,,,male,Other,8,March,Yes,Yes,Yes,
37,jerasmus,Yes,Jahne,Erasmus,Jahne Erasmus,,jahneerasmus@gmail.com,jerasmus@student.42.fr,27797455113,18-Jul-1985,32,8507185179088,,White,South Africa,,Yes,,Centurion,,,,male,,16,January,Yes,Yes,Yes,
38,jswanepo,Yes,Jason,Swanepoel,Jason Swanepoel,,jaso.swan@gmail.com,jswanepo@student.42.fr,27823969616,11-Nov-1997,19,9711115030085,,White,South Africa,,Yes,,,,,,male,Other,20,March,Yes,Yes,Yes,
39,julekgwa,Yes,Junius,Lekgwara,Junius Lekgwara,,phutigravel@gmail.com,julekgwa@student.42.fr,27726853452,9-Nov-1985,31,8511096020084,,Black,South Africa,,Yes,,,,,,male,News Article,7,January,Yes,Yes,Yes,Yes
40,kbamping,Yes,Kyle,Bamping,Kyle Bamping,,kylebamping7@gmail.com,kbamping@student.42.fr,27838670885,7-Feb-1994,23,940207 561 00 88,,White,South Africa,,No,English,Bryanston,DesigntimeBusinessSolutions,Matric,9402075610088,Male,NewsArticle,2,February,Yes,Yes,Yes,
41,kchetty,Yes,Keshan,Chetty,Keshan Chetty,,kchetty416@gmail.com,kchetty@student.42.fr,27813382258,24-Feb-1998,19,9802245210083,,Indian,South Africa,,Yes,English,Midrand,None,Grade12,9802245210083,Male,Other,6,February,Yes,Yes,Yes,
42,kcowle,Yes,Keegan,Cowle,Keegan Cowle,,testcom132@gmail.com,kcowle@student.42.fr,27726116236,26/05/1998,#VALUE!,9805265641087,,White,South Africa,,No,,Pretoria,,,,male,,8,January,OKInterview,Yes,Yes,
43,kgani,Yes,Kyle,Gani,Kyle Gani,,gani.kyle@rocketmail.com,kgani@student.42.fr,27633035621,31/03/1992,#VALUE!,9203315047085,,Indian,South Africa,,Yes,,Randburg,,,,male,,16,February,Yes,Yes,Yes,
44,khamusek,Yes,Khathu,Musekwa,Khathu Musekwa,,khathumusekwa@gmail.com,khamusek@student.42.fr,27794902751,14-Nov-1995,21,,,Black,South Africa,,Yes,Tshivenda,MoreletaPark,TuksFM,Matric,9511145159080,Male,Other,4,February,Yes,No,Yes,
45,khansman,Yes,Kalilo,Hansmann,Kalilo Hansmann,,kalilohansmann@gmail.com,khansman@student.42.fr,27617582812,1-Sep-1994,22,940901 5839 081,,White,South Africa,,Yes,English,Hogsback,None,Matric,9409015839081,male,NewsArticle,17,February,Yes,Yes,Yes,
46,kioulian,Yes,Kyri,Ioulianou,Kyri Ioulianou,,kyri88@gmail.com,kioulian@student.42.fr,27824410650,16-Dec-1996,20,,,White,South Africa,,Yes,English,Germston,None,Matric,9612165375083,Male,Other,3,February,Yes,No,Yes,
47,kmgoduka,Yes,Khwezi,Mgoduka,Khwezi Mgoduka,,statikverse@gmail.com,kmgoduka@student.42.fr,817740009,,117,9412275111084,,Black,South Africa,,Yes,,,,,,male,,16,March,OKInterview,Yes,Yes,
48,kmohlala,Yes,Katlego,Mohlala,Katlego Mohlala,,mohlala.kat72@gmail.com,kmohlala@student.42.fr,27782737363,22-Jul-1990,26,9007226007082,,Black,South Africa,,Yes,,,,,,male,Harambee,2,March,Yes,Yes,Yes,
49,knage,Yes,Keang,Nage,Keang Nage,,keang.nage.3@hotmail.com,knage@student.42.fr,27762925302,5-May-1999,18,9905055331087,,Black,South Africa,,No,,,,,,male,,19,February,Yes,Yes,Yes,
50,ktshikot,Yes,Khuthadzo,Tshikotshi,Khuthadzo Tshikotshi,,khuthadzotshikotshi@gmail.com,ktshikot@student.42.fr,27747701521,14-Jun-1996,21,9606146086082,,Black,South Africa,,Yes,Tshivenda,MargateCity,None,NationalCertificate(Vocational)Level4,9606146086082,Male,NewsArticle,15,January,Yes,Yes,Yes,
51,lchimes,Yes,Liam,Chimes,Liam Chimes,,havengulrunebinder@gmail.com,lchimes@student.42.fr,27726303036,28/11/1995,#VALUE!,9511285377088,,White,South Africa,,Yes,,George,,,,male,,17,February,Yes,Yes,Yes,
52,lhamlyn,Yes,Luke,Hamlyn,Luke Hamlyn,,hamlynluke@gmail.com,lhamlyn@student.42.fr,27795022932,29/10/1997,#VALUE!,,,White,South Africa,,Yes,,Randburg,,,,male,,4,February,OKInterview,Yes,Yes,
53,ljafta,Yes,Lumkile,Jafta,Lumkile Jafta,,lumkojafta@yahoo.com,ljafta@student.42.fr,27729747347,17-Sep-1985,31,8509175765082,,Black,South Africa,,Yes,,,,,,male,Radio,15,March,OKInterview,Yes,Yes,Yes
54,lkoekemo,Yes,Lourens,Koekemoer,Lourens Koekemoer,,loukoekemoer@gmail.com,lkoekemo@student.42.fr,27828226600,12-Apr-1990,27,9004125164080,,White,South Africa,,Yes,,,,,,male,News Article,22,March,Yes,Yes,Yes,
55,lmatshay,Yes,Luthando,Matshaya,Luthando Matshaya,,ntsika.matshaya@live.com,lmatshay@student.42.fr,27796352918,22/03/1994,#VALUE!,9403225162087,,Black,South Africa,,Yes,,,,,,male,,18,February,OKInterview,Yes,Yes,
56,lnkadime,Yes,Lebelo,Nkadimeng,Lebelo Nkadimeng,,lebelo@paybook.co.za,lnkadime@student.42.fr,27815108800,19/11/1990,#VALUE!,9011195171085,,Black,South Africa,,Yes,,Midrand,,,,male,,14,January,Yes,Yes,Yes,
57,ltavira,Yes,Laa'iq,Tavira,Laa'iq Tavira,,saadahe@gmail.com,ltavira@student.42.fr,27846025486,10-Nov-1998,18,9811105188081,,Coloured,South Africa,,No,,,,,,male,Facebook,13,January,OKInterview,Yes,Yes,Yes
58,ltlhoael,Yes,Lebohang,Tlhoaele,Lebohang Tlhoaele,,lebohangtlhoaele@gmail.com,ltlhoael@student.42.fr,27833787481,16-May-1988,29,880516 5639 083,,Black,South Africa,,No,,,,,,male,Other,2,March,Yes,Yes,Yes,
59,mdlamini,Yes,Mpho Andrew,Dlamini,Mpho Andrew Dlamini,,dlaminiandrew@gmail.com,mdlamini@student.42.fr,27614677746,25/05/1992,#VALUE!,9205255290088,,Black,South Africa,,Yes,,Boksburg,,,,male,,1,February,Yes,Yes,Yes,
60,meckhard,Yes,Michael,Eckhardt,Michael Eckhardt,,mikejeckhardt@gmail.com,meckhard@student.42.fr,27796770815,8-Sep-1996,20,960908 5107 083,,White,South Africa,,Yes,,,,,,male,News Article,22,March,Yes,Yes,Yes,Yes
61,mferreir,Yes,Marco,Ferreira,Marco Ferreira,,marcof9401@gmail.com,mferreir@student.42.fr,27817722919,29/01/1994,#VALUE!,9206096254184,,White,South Africa,,Yes,,Germiston,,,,male,,12,January,Yes,Yes,Yes,
62,mfmalaba,Yes,Mfanyana,Malaba,Mfanyana Malaba,,tanakamalaba@gmail.com,mfmalaba@student.42.fr,27725116984,9-Jun-1992,25,,,Black,South Africa,,Yes,,,,,,male,Google,7,March,Yes,Yes,Yes,
63,mjooste,Yes,Marcell,Jooste,Marcell Jooste,,joostemarcell@gmail.com,mjooste@student.42.fr,27609433961,,117,9405205016084,,White,South Africa,,Yes,,Lynwood,,,,male,,21,January,Yes,Yes,Yes,
64,mlamarre,Yes,Miriam,Lamarre,Miriam Lamarre,,studium.square.pantz@gmail.com,mlamarre@student.42.fr,27726881386,25/03/1987,29,870325 1290 186,,Black,,,,,KemptonPark,,,,female,,17,February,OKInterview,Yes,Yes,
65,mlubisi,Yes,Mbongeni,Lubisi,Mbongeni Lubisi,,marv.lubisi@gmail.com,mlubisi@student.42.fr,27711166305,16-Oct-1992,24,921016 5468089,,Black,South Africa,,Yes,,,,,,male,Google,12,March,OKInterview,Yes,Yes,Yes
66,mmacheke,Yes,Musa,macheke,Musa macheke,,mgmacheke@yahoo.com,mmacheke@student.42.fr,27621414450,28-Mar-1992,25,920328 6255 089,,Black,South Africa,,Yes,,,,,,male,Internet Cafe,9,January,OKInterview,Yes,Yes,Yes
67,mmakwakw,Yes,Mandisi,Makwakwa,Mandisi Makwakwa,,mandisi.makwakwa@gmail.com,mmakwakw@student.42.fr,27741380380,19/02/1992,#VALUE!,9202195244085,,Black,South Africa,,Yes,,,,,,male,,1,January,OKInterview,Yes,Yes,
68,mmashego,Yes,Modisane,Mashego,Modisane Mashego,,mashego.modisane@gmail.com,mmashego@student.42.fr,27787641694,17-Oct-1990,26,901017 5149 087,,Black,South Africa,,Yes,,,,,,male,Facebook,9,January,Yes,Yes,Yes,Yes
69,mmodise,Yes,Moagi,Modise,Moagi Modise,,modisemoagi@gmail.com,mmodise@student.42.fr,27761320289,4-Feb-1991,26,910402 5605081,,Black,South Africa,,Yes,,,,,,male,,5,February,Yes,Yes,Yes,
70,mmoliele,Yes,Mohale,Molieleng,Mohale Molieleng,,mjmolieleng@gmail.com,mmoliele@student.42.fr,26659694888,6-Jun-1992,25,45284193024,,Black,Lesotho,,Yes,,,,,,male,Facebook,20,March,Yes,Yes,Yes,
71,mntuli,Yes,Mphiwe,Ntuli,Mphiwe Ntuli,,mphiwentuli@gmail.com,mntuli@student.42.fr,27740724172,1-Sep-1994,22,9401095327087,,Black,South Africa,,Yes,,Richmond,,,,male,,17,January,OKInterview,Yes,Yes,
72,motmorok,Yes,Motlatso,Morokolo,Motlatso Morokolo,,motlatsomorokolo@gmail.com,motmorok@student.42.fr,740586347,,117,950816 5566 087,,Black,South Africa,,No,,,,,,male,,16,January,OKInterview,Yes,Yes,Yes
73,mvanwyk,Yes,Matthew,van Wyk,Matthew van Wyk,,myshorts.mail@gmail.com,mvanwyk@student.42.fr,27731210364,6-Mar-1988,29,,,White,South Africa,,Yes,,,,,,male,News Article,12,March,Yes,No,Yes,
74,nkhotle,Yes,Noluthando,Khotle,Noluthando Khotle,,noluthando09khotle@gmail.com,nkhotle@student.42.fr,27618195537,12/9/1997,19,9712090696080,,Black,,,,,,,,,female,Radio,12,March,OKInterview,Yes,Yes,
75,nmoloi,Yes,Ntaoleng,Moloi,Ntaoleng Moloi,,n_moloi@outlook.com,nmoloi@student.42.fr,27625991180,22/12/1992,23,9212220722088,,Black,,,,,Sandton,,,,female,,8,January,OKInterview,Yes,Yes,
76,oexall,Yes,Owen,Exall,Owen Exall,,owen@exall.za.net,oexall@student.42.fr,27618829234,26-Aug-1996,20,9608265057084,,White,South Africa,,Yes,Afrikaans,PretoriaNorth,None,Matric,9608265057084,male,NewsArticle,5,February,Yes,Yes,Yes,
77,phjacobs,Yes,Phillip,Jacobs,Phillip Jacobs,,gabrede.j.haven@gmail.com,phjacobs@student.42.fr,27617167390,6-Oct-1997,19,9710065267085,,Coloured,South Africa,,Yes,Afrikaans,Eersterust,None,Grade12,9710065267085,male,Radio,22,January,okinterview,Yes,Yes,
78,rbromilo,Yes,Richard,Bromilo,Richard Bromilo,,richbromilow@gmail.com,rbromilo@student.42.fr,27795222066,,117,9205115084085,,White,South Africa,,Yes,,,,,,male,,13,January,Yes,Yes,Yes,Yes
79,reyvan-d,Yes,Reyno,van der Westhuizen,Reyno van der Westhuizen,,vdwesthuizenreyno@gmail.com,reyvan-d@student.42.fr,27820690707,8-Nov-1996,20,9611085074081,,White,South Africa,,Yes,Afrikaans,Magaliesburg,None,Grade12,9611085074081,male,NewsArticle,17,January,Yes,No,Yes,
80,rlutsch,Yes,Ross,Lutsch,Ross Lutsch,,ross.lutsch@gmail.com,rlutsch@student.42.fr,27827467862,5-Jun-1982,35,,,White,South Africa,,Yes,Afrikaans,Arcadia,sizwentsalubagobodo,Grade12,8206055004084,male,NewsArticle,9,January,okinterview,No,Yes,
81,rmoswela,Yes,Reuben,Moswela,Reuben Moswela,,tmgsibanda@gmail.com,rmoswela@student.42.fr,26773920750,21-Oct-1989,27,B0319062,,Black,Botswana,,Yes,,,,,,male,Facebook,16,March,OKInterview,Yes,,
82,rojones,Yes,Robert,Jones,Robert Jones,,94.rob.jones@gmail.com,rojones@student.42.fr,27736506925,21-Feb-1994,23,9402215015081,,White,South Africa,,Yes,English,Pretoria,AmericanRepertoryBallet,Matric,9402215015081,male,Radio,9,January,Yes,Yes,Yes,
83,sallen,Yes,Stuart,Allen,Stuart Allen,,allen.m.stuart@gmail.com,sallen@student.42.fr,27761188376,7-Mar-1991,26,,,White,South Africa,,Yes,English,Randburg,SimpleTechnologiesGroup,Grade12,9107035136088,male,NewsArticle,19,January,Yes,Yes,Yes,
84,sasiedu,Yes,Stephen,Asiedu,Stephen Asiedu,,stephenasiedu0@gmail.com,sasiedu@student.42.fr,27712891055,14-Apr-1994,23,g0589778,,Black,Ghana,,Yes,,Lyndhurst,,,,male,,15,February,Yes,Yes,Yes,
85,sdube,Yes,Sindiso,Dube,Sindiso Dube,,dubesimba31@gmail.com,sdube@student.42.fr,27733074872,22-Feb-1994,23,9402226147089,,Black,South Africa,,Yes,,Witbank,,,,male,,11,February,Yes,Yes,Yes,
86,shalstea,,Stephen,Halstead,Stephen Halstead,,shalstead@outlook.com,shalstea@student.42.fr,27761173100,7-Jun-1990,27,,,White,South Africa,,Yes,,,,,,male,,15,January,Yes,Yes,Yes,Yes
87,shulley,Yes,Sherwin,Hulley,Sherwin Hulley,,ethermuzik@gmail.com,shulley@student.42.fr,27720533181,21-Dec-1989,27,8912215070085,,Coloured,South Africa,,Yes,English,Bronkhonspruit,SteelFabricationcc,Grade12,8912215070085,male,Other,14,January,Yes,Yes,Yes,
88,smahomed,Yes,Shad,Mahomed,Shad Mahomed,,shadm5661@gmail.com,smahomed@student.42.fr,27734394211,3-May-1995,22,9505035261089,,Indian,South Africa,,Yes,English,CornGardens,None,Matric,95050535261089,male,Other,12,February,Yes,Yes,Yes,
89,smamba,Yes,Sizwe,Mamba,Sizwe Mamba,,codegeek77@gmail.com,smamba@student.42.fr,27784832748,6-Mar-1997,20,9706036034083,,Black,South Africa,,Yes,,Boksburg,,,,male,,18,January,Yes,Yes,Yes,
90,tditshwe,Yes,Trinity,Ditshwene,Trinity Ditshwene,,kt.ditshwene@gmail.com,tditshwe@student.42.fr,27727555597,2-Jan-1988,29,8801025390082,,Black,South Africa,,Yes,,,,,,male,Other,10,March,Yes,Yes,Yes,
91,tgar,Yes,Tai,Gar,Tai Gar,,black.cartel1@gmail.com,tgar@student.42.fr,27720267144,17-Jun-1988,29,8806175013087,,Coloured,South Africa,,Yes,,,,,,male,Other,11,February,OKInterview,Yes,Yes,Yes
92,thmkhwan,Yes,Thandeka,Mkhwanazi,Thandeka Mkhwanazi,,thandekamkhwanazi92@gmail.com,thmkhwan@student.42.fr,27814415009,8/10/1992,24,9208100090083,,Black,r,,,,,,,,female,Facebook,18,March,OKInterview,Yes,Yes,
93,thumavu,Yes,Thulasizwe,Mavuso,Thulasizwe Mavuso,,thulasizweterrence@gmail.com,thumavu@student.42.fr,27844467321,15-Apr-1993,24,9304155375089,,Black,South Africa,,Yes,Zulu,Ermelo,None,Grade12,9304155375089,male,Other,19,February,okinterview,Yes,Yes,
94,tmack,Yes,Tony,Mack,Tony Mack,,tonmanayo@hotmail.com,tmack@student.42.fr,27844562656,16-Dec-1992,24,9212165161086,,White,South Africa,,Yes,,,,,,male,,5,January,Yes,Yes,Yes,
95,tmaske,Yes,Tristan,Maske,Tristan Maske,,trismaske@gmail.com,tmaske@student.42.fr,27760550470,15-Apr-1993,24,9304155209080,,White,South Africa,,Yes,,,,,,male,News Article,19,March,Yes,Yes,Yes,
96,tmohlala,Yes,Tumelo,Mohlala,Tumelo Mohlala,,mohlala.tumelo@gmail.com,tmohlala@student.42.fr,27780801126,29-Aug-1988,28,8808296152083,,Black,South Africa,,Yes,,,,,,male,Radio,7,March,OKInterview,Yes,Yes,
97,tmothobe,Yes,Thabiso,Mothobekhi,Thabiso Mothobekhi,,mothobekhi@outlook.com,tmothobe@student.42.fr,27716422679,,117,9102085324080,,Black,South Africa,,Yes,,,,,,male,Google,6,March,Yes,Yes,Yes,
98,tmugadza,Yes,Timothy,Mugadza,Timothy Mugadza,,mugadzatt001@gmail.com,tmugadza@student.42.fr,27844223460,25-Sep-1989,27,8909256753181,,Black,South Africa,,Yes,,,,,,male,Facebook,5,March,Yes,Yes,Yes,
99,tyoggen,Yes,Tyrone,Oggen,Tyrone Oggen,,tyrone.koggen@gmail.com,tyoggen@student.42.fr,826681527,,117,9809255040086,,Coloured,South Africa,,Yes,,,,,,male,,4,January,Waiting list,Yes,Yes,Yes
100,usumaru,Yes,Udhir,Sumaru,Udhir Sumaru,,dhirsumaru@gmail.com,usumaru@student.42.fr,27833821285,10-Nov-1990,26,9010115270084,,Indian,South Africa,,Yes,,,,,,male,,6,January,OK Interview,Yes,Yes,
101,vgovende,Yes,Viashen,Govender,Viashen Govender,,viashen07@gmail.com,vgovende@student.42.fr,27722301862,6-Jul-1996,21,9606075239082,,Indian,South Africa,,Yes,English,Elberton,None,grade12,9606075239082,male,Other,10,January,Yes,Yes,Yes,
102,vivan-de,Yes,Victor Verdun,van der Watt,Victor Verdun van der Watt,,verdunw2@gmail.com,vivan-de@student.42.fr,27761544130,2-Mar-1997,20,,,White,South Africa,,Yes,English,BedfordSquare,None,Matric,9703025019084,male,NewsArticle,3,January,Yes,No,Yes,
103,vsadike,Yes,Vuyo,Sadike,Vuyo Sadike,,vuyosadike@gmail.com,vsadike@student.42.fr,27814486562,28-Jul-1994,22,9407285166086,,Black,South Africa,,Yes,,,,,,male,Google,17,March,OKInterview,Yes,Yes,Yes
104,ymukmar,Yes,Yedidia,Muk'mar,Yedidia Muk'mar,,solomonyedidia@gmail.com,ymukmar@student.42.fr,27846677471,26-Sep-1996,20,JHBCOG000090211,,Black,DRC (Asylum seeker),,Yes,,,,,,male,Facebook,18,January,OKInterview,Yes,Yes,Yes
105,zmakhube,Yes,Zondiwa,Makhubele,Zondiwa Makhubele,,makhubelevictor@outlook.com,zmakhube@student.42.fr,27603718887,9-May-1987,30,8705095562084,,Black,South Africa,,Yes,,,,,,male,Other,13,March,Yes,Yes,Yes,
,,,,,,,,,,,,,,,,,,,,,,,,,,,,,,
106,jomeirin,#N/A,Johan,Meiring,Johan Meiring,,emjmeiring@gmail.com,jomeirin@student.42.fr,27817367534,31-Aug-1988,28,,,White,South Africa,,Yes,Afrikaans,Bloemfontein,none,Matric,8808315079085,Male,Radio,21,January,Yes,Yes,Yes,
107,zmoola,#N/A,Zubair,Moola,Zubair Moola,,zubairmoola01@gmail.com,zmoola@student.42.fr,27835598778,20-Apr-1992,25,,,Black,South Africa,,Yes,,,,,,male,Radio,4,March,Yes,Yes,Yes,Yes
108,cswan,#N/A,Cuan,Swan,Cuan Swan,,cu4nsw4n@gmail.com,cswan@student.42.fr,27621928470,28-Oct-1994,22,,,White,South Africa,,Yes,,,,,,male,Other,20,March,OKInterview,Yes,Yes,
109,jbester,#N/A,Joshua,Bester,Joshua Bester,,joshua.bester@gmail.com,jbester@student.42.fr,27826496626,4-Mar-1997,20,,,White,South Africa,,Yes,,Pretoria,,,,male,,20,January,Yes,Yes,Yes,
110,jlangman,#N/A,Joshua,Langman,Joshua Langman,,jvltrading@gmail.com,jlangman@student.42.fr,27846790985,10-May-1996,21,,,White,South Africa,,Yes,English,LinksfieldNorth,JonathanNoshBedfordviewPrimarySchool,Matric,9605105145087,male,Other,14,February,Yes,Yes,Yes,
111,jnomason,#N/A,Jessica,Nomasonto,Jessica Nomasonto,,mahlambajessica@gmail.com,jnomason@student.42.fr,27784468734,2/10/1993,22,,,Black,,,,,Tshepisong,,,,female,,13,January,OKInterview,Yes,Yes,
112,jspring,#N/A,Julian,Spring,Julian Spring,,springjulian@gmail.com,jspring@student.42.fr,27842427867,3-Feb-1997,20,,,White,South Africa,,Yes,,VictoryPark,,,,male,,11,February,Yes,Yes,Yes,
113,simzam,#N/A,Siyanda,Mzam,Siyanda Mzam,,dot.netntoz@gmail.com,simzam@student.42.fr,27846229183,25-Jun-1993,24,,,Black,South Africa,,Yes,IsiXhosa,Mdantsane,None,Grade12,9306255553085,male,Other,13,February,Yes,Yes,Yes,
114,smashele,#N/A,Sizwe,Mashele,Sizwe Mashele,,sizwe.mash@gmail.com,smashele@student.42.fr,27795273876,7-Apr-1993,24,,,Black,South Africa,,Yes,,,,,,male,News Article,6,January,Yes,Yes,Yes,Yes
115,thandung,#N/A,Thandolwethu,Ndungane,Thandolwethu Ndungane,,oza.ndungane@gmail.com,thandung@student.42.fr,27815698371,20-Dec-1995,21,,,Black,South Africa,,Yes,,,,,,male,Other,2,January,OKInterview,Yes,Yes,Yes
116,tlouw,#N/A,Theo,Louw,Theo Louw,,theolouw@ymail.com,tlouw@student.42.fr,27716408354,23-Jun-1993,24,,,White,South Africa,,No,,,,,,male,Other,21,March,Yes,Yes,Yes,
117,tmotaung,#N/A,Tumelo,Motaung,Tumelo Motaung,,walksoffaith@outlook.com,tmotaung@student.42.fr,27726685945,,,,,Black,r,,,,,,,,female,,11,February,Waiting list,Yes,Yes,Yes
