POSTE,IP,DEAMON WTC,PING,SSH STATUS,LOG-IN,ANSIBLE,KEYBOARD,MOUSE,IS GREEN,SPECIAL,Password EFI,Special
e5r1p1,10.205.0.1,OK,OK,OK,OK,NOPE,OK,OK,OK,,0FVVvtnrvB5HkCue,
e5r1p2,10.205.0.2,OK,OK,OK,OK,NOPE,OK,OK,OK,,XcOlxO3XMAz7dMEp,
e5r1p3,10.205.0.3,OK,OK,OK,OK,NOPE,OK,OK,OK,,ThxzMQ1g2VPf24tA,
e5r1p4,10.205.0.4,OK,OK,OK,OK,NOPE,OK,OK,OK,,kAMU3xV78bR0ogQF,
e5r1p5,10.205.0.5,OK,OK,OK,OK,NOPE,OK,OK,OK,,Jo7rerH70BNZL0lP,
e5r1p6,10.205.0.6,OK,OK,OK,OK,NOPE,OK,OK,OK,,iXE3UUPlEGgKazvj,
e5r1p7,10.205.0.7,OK,OK,OK,OK,NOPE,OK,OK,OK,,fOEv6LmWLNWOFVS7,
e5r1p8,10.205.0.8,OK,OK,OK,OK,NOPE,OK,OK,OK,,sIXxbCRk3/ve8H15,
e5r1p9,10.205.0.9,OK,OK,OK,OK,NOPE,OK,OK,OK,,bxF3xJkZNbYF8V1Q,
e5r1p10,10.205.0.10,OK,OK,OK,OK,NOPE,OK,OK,OK,,Jq3/9ooxXPVBeLXx,
e5r2p1,10.205.0.12,OK,OK,OK,OK,NOPE,OK,OK,OK,,ntFo5dvNEuOcyST6,
e5r2p2,10.205.0.13,OK,OK,OK,OK,NOPE,OK,OK,OK,,hlQeE4jF2gxT0QIr,
e5r2p3,10.205.0.14,OK,OK,OK,OK,NOPE,OK,OK,OK,,KN7LSHPzzqSpghtA,
e5r2p4,10.205.0.15,OK,OK,OK,OK,NOPE,OK,OK,OK,,yM3z9ygQ/kKDSAKC,
e5r2p5,10.205.0.16,OK,OK,OK,OK,NOPE,OK,OK,OK,,ijyFSNR2sfNYCaIG,
e5r2p6,10.205.0.17,OK,OK,OK,OK,NOPE,OK,OK,OK,,pF8Iit+Nl06AclT1,
e5r2p7,10.205.0.18,OK,OK,OK,OK,NOPE,OK,OK,OK,,dZkNNK70mQzFybY3,
e5r2p8,10.205.0.19,OK,OK,OK,OK,NOPE,OK,OK,OK,,xXZ53amXZuLU0slW,
e5r2p9,10.205.0.20,OK,OK,OK,OK,NOPE,OK,OK,OK,,T5TGZO4pwqWvAbXg,
e5r2p10,10.205.0.21,OK,OK,OK,OK,NOPE,OK,OK,OK,,b0bTG2Iej8dss4oZ,
e5r2p11,10.205.0.22,OK,OK,OK,OK,NOPE,OK,OK,OK,,BAboYMBLH/u37STe,
e5r3p1,10.205.0.23,OK,OK,OK,OK,NOPE,OK,OK,OK,,Tb1OCSpK/3a3l8P1,
e5r3p2,10.205.0.24,OK,OK,OK,OK,NOPE,OK,OK,OK,,C6ebkcl6WY8F140i,
e5r3p3,10.205.0.25,OK,OK,OK,OK,NOPE,OK,OK,OK,,FUMQYsA8/0Pd1lQq,
e5r3p4,10.205.0.26,OK,OK,OK,OK,NOPE,OK,OK,OK,,AM4w0byVfHKX0gc7,
e5r3p5,10.205.0.27,OK,OK,OK,OK,NOPE,OK,OK,OK,,a2o40M1lQDDDVhGS,
e5r3p6,10.205.0.28,OK,OK,OK,OK,NOPE,OK,OK,OK,,vimqb788qqExlHmp,
e5r3p7,10.205.0.29,OK,OK,OK,OK,NOPE,OK,OK,OK,,LaKNrowZaf51jJxC,
e5r3p8,10.205.0.30,OK,OK,OK,OK,NOPE,OK,OK,OK,,YRcJBMy9+tXVjRtH,
e5r3p9,10.205.0.31,OK,OK,OK,OK,NOPE,OK,OK,OK,,L/aQnXtVEV70uKKM,
e5r3p10,10.205.0.32,OK,OK,OK,OK,NOPE,OK,OK,OK,,VYwbiv8JGUizk1CZ,
e5r3p11,10.205.0.33,OK,OK,OK,OK,NOPE,OK,OK,OK,,gMAiM1nu8wvaVG8p,
e5r4p1,10.205.0.34,OK,OK,OK,OK,NOPE,OK,OK,OK,,DhejFxvqYddQIlVd,
e5r4p2,10.205.0.35,OK,OK,OK,OK,NOPE,OK,OK,OK,,WaEPhTu3zIggkYdf,
e5r4p3,10.205.0.36,OK,OK,OK,OK,NOPE,OK,OK,OK,,cSJ3dJ8s1b9dW75G,
e5r4p4,10.205.0.37,OK,OK,OK,OK,NOPE,OK,OK,OK,,HwEn2Bsh5qzBHDbJ,
e5r4p5,10.205.0.38,OK,OK,OK,OK,NOPE,OK,OK,OK,,8urI2fXsX1vpb20v,
e5r4p6,10.205.0.39,OK,OK,OK,OK,NOPE,OK,OK,OK,,1k4iztrnY+5ilByT,
e5r4p7,10.205.0.40,OK,OK,OK,OK,NOPE,OK,OK,OK,,cUaUnawddudhp0/h,
e5r4p8,10.205.0.41,OK,OK,OK,OK,NOPE,OK,OK,OK,Broken network point,6O0FqLqxzIk7uxso,
e5r4p9,10.205.0.42,OK,OK,OK,OK,NOPE,OK,OK,OK,,v8u/PvbhYiauH5w9,
e5r4p10,10.205.0.43,OK,OK,OK,OK,NOPE,OK,OK,OK,,ep2u7XPj7FkO/yK6,
e5r4p11,10.205.0.44,OK,OK,OK,OK,NOPE,OK,OK,OK,,QeCPuIeQCksW9pDF,
e5r5p1,10.205.0.45,OK,OK,OK,OK,NOPE,OK,OK,OK,,OVB+uFAb1H+9DU4+,
e5r5p2,10.205.0.46,OK,OK,OK,OK,NOPE,OK,OK,OK,,"""=+vB0r3vw09ThLkMm""",
e5r5p3,10.205.0.47,OK,OK,OK,OK,NOPE,OK,OK,OK,,We1SbpnTkoNr/kRF,
e5r5p4,10.205.0.48,OK,OK,OK,OK,NOPE,OK,OK,OK,,u7R6u3IT4InR8rYL,
e5r5p5,10.205.0.49,OK,OK,OK,OK,NOPE,OK,OK,OK,Mouse not scrolling,WLEPbbGrkhqxrbMP,
e5r5p6,10.205.0.50,OK,OK,OK,OK,NOPE,OK,OK,OK,,Kgmq5wZ1avyahxFk,
e5r5p7,10.205.0.51,OK,OK,OK,OK,NOPE,OK,OK,OK,,bFlee/FxMTcKN2kI,
e5r5p8,10.205.0.52,OK,OK,OK,OK,NOPE,OK,OK,OK,,I5KPh5otxXDeYhSv,
e5r5p9,10.205.0.53,OK,OK,OK,OK,NOPE,OK,OK,OK,,CUBq+PCQQyG2Wzmn,
e5r5p10,10.205.0.54,OK,OK,OK,OK,NOPE,OK,OK,OK,,sq3sGqnUkvyXOdWi,
e5r5p11,10.205.0.55,OK,OK,OK,OK,NOPE,OK,OK,OK,,cDq/iZpEfyCOl+bZ,
e5r6p1,10.205.0.56,OK,OK,OK,OK,NOPE,OK,OK,OK,,UvhIH0v0XHpu+nGn,
e5r6p2,10.205.0.57,OK,OK,OK,OK,NOPE,OK,OK,OK,,3Vg8IEGAptAhzRK1,
e5r6p3,10.205.0.58,OK,OK,OK,OK,NOPE,OK,OK,OK,,/qT5iyMKcBOqOSqx,
e5r6p4,10.205.0.59,OK,OK,OK,OK,NOPE,OK,OK,OK,,ZMwk3Hx9Aqssmz9u,
e5r6p5,10.205.0.60,OK,OK,OK,OK,NOPE,OK,OK,OK,,MxJWl9IplFyyH/qh,
e5r6p6,10.205.0.61,OK,OK,OK,OK,NOPE,OK,OK,OK,,EwHwW9/exCSNJBGt,
e5r6p7,10.205.0.62,OK,OK,OK,OK,NOPE,OK,OK,OK,,4aJkbMAegvl7pHPA,
e5r6p8,10.205.0.63,OK,OK,OK,OK,NOPE,OK,OK,OK,,4YkCAoRw3DV1UiN0,
e5r6p9,10.205.0.64,OK,OK,OK,OK,NOPE,OK,OK,OK,,ZWLFetnLAxZbcSxd,
e5r6p10,10.205.0.65,OK,OK,OK,OK,NOPE,OK,OK,OK,,TouD4SEV86UyBAor,
e5r6p11,10.205.0.66,OK,OK,OK,OK,NOPE,OK,OK,OK,,fGvGxKwOuGwjF0r/,
e5r7p1,10.205.0.67,OK,OK,OK,OK,NOPE,OK,OK,OK,,yGzySjX/Zne/2voo,
e5r7p2,10.205.0.68,OK,OK,OK,OK,NOPE,OK,OK,OK,,cNRpKoMkxpBwqZH7,
e5r7p3,10.205.0.69,OK,OK,OK,OK,NOPE,OK,OK,OK,,d6jKPJs7LYR8fLn6,
e5r7p4,10.205.0.70,OK,OK,OK,OK,NOPE,OK,OK,OK,,6B62Yvz2qkxjRAtF,
e5r7p5,10.205.0.71,OK,OK,OK,OK,NOPE,OK,OK,OK,,Hc3WlhN07Z9wX+mD,
e5r7p6,10.205.0.72,OK,OK,OK,OK,NOPE,OK,OK,OK,,rUeM5QjjQfYs+fiH,
e5r7p7,10.205.0.73,OK,OK,OK,OK,NOPE,OK,OK,OK,,1RMRhplG5ir37qG4,
e5r7p8,10.205.0.74,OK,OK,OK,OK,NOPE,OK,OK,OK,,6UufGaTJLX3RFZeA,
e5r7p9,10.205.0.75,OK,OK,OK,OK,NOPE,OK,OK,OK,,lhKJTe2wGtDGHizA,
e5r7p10,10.205.0.76,OK,OK,OK,OK,NOPE,OK,OK,OK,,1QefQymvCvVE6Mlt,
e5r7p11,10.205.0.77,OK,OK,OK,OK,NOPE,OK,OK,OK,,/s76vl2NfA0zuExQ,
e5r8p1,10.205.0.78,OK,OK,OK,OK,NOPE,OK,OK,OK,,V9eeuRJ9hDk6i+Iw,
e5r8p2,10.205.0.79,OK,OK,OK,OK,NOPE,OK,OK,OK,,yaUoj5Kb0gS734Gh,
e5r8p3,10.205.0.80,OK,OK,OK,OK,NOPE,OK,OK,OK,,mIfabcErvRww2SNW,
e5r8p4,10.205.0.81,OK,OK,OK,OK,NOPE,OK,OK,OK,,3Iv/wAdW6WyCePux,
e5r8p5,10.205.0.82,OK,OK,OK,OK,NOPE,OK,OK,OK,,ov2MMLDoV/trCp/H,
e5r8p6,10.205.0.83,OK,OK,OK,OK,NOPE,OK,OK,OK,,aFDjnNUTBg/EdeOF,
e5r8p7,10.205.0.84,OK,OK,OK,OK,NOPE,OK,OK,OK,,LhkYezLvGMVmpjyE,
e5r8p8,10.205.0.85,OK,OK,OK,OK,NOPE,OK,OK,OK,,zV7P/v3tQ3isy3GT,
e5r8p9,10.205.0.86,OK,OK,OK,OK,NOPE,OK,OK,OK,,BvxWBiPAzdxI/dsz,
e5r8p10,10.205.0.87,OK,OK,OK,OK,NOPE,OK,OK,OK,,nIGC+OZ8Ld4+SpFw,
e5r8p11,10.205.0.88,OK,OK,OK,OK,NOPE,OK,OK,OK,,tzLXEVF5GPGV0RUw,
e5r9p1,10.205.0.89,OK,OK,OK,OK,NOPE,OK,OK,OK,,2zwVLeDS7CGrunrp,
e5r9p2,10.205.0.90,OK,OK,OK,OK,NOPE,OK,OK,OK,,hJlBAySv6YUGCL7W,
e5r9p3,10.205.0.91,OK,OK,OK,OK,NOPE,OK,OK,OK,No keyboard & mouse,7VFtbVyGKsCoCR8A,
e5r9p4,10.205.0.92,OK,OK,OK,OK,NOPE,OK,OK,OK,,DvNV3/+ScFGzLTXN,
e5r9p5,10.205.0.93,OK,OK,OK,OK,NOPE,OK,OK,OK,,188fZKA4yGxOdvhJ,
e5r9p6,10.205.0.94,OK,OK,OK,OK,NOPE,OK,OK,OK,,MUbPKPAAbVxpvi7q,
e5r9p7,10.205.0.95,OK,OK,OK,OK,NOPE,OK,OK,OK,,Kcg9/RDeTRJjUzez,
e5r9p8,10.205.0.96,OK,OK,OK,OK,NOPE,OK,OK,OK,,n/tWJSzIYreUYmSE,
e5r9p9,10.205.0.97,OK,OK,OK,OK,NOPE,OK,OK,OK,,nOS1rxHav54tE0AL,
e5r9p10,10.205.0.98,OK,OK,OK,OK,NOPE,OK,OK,OK,,MaNj+45q5Yfb4kWP,
e5r9p11,10.205.0.99,OK,OK,OK,OK,NOPE,OK,OK,OK,,7yJGk33joolToifu,
e5r10p1,10.205.0.101,OK,OK,OK,OK,NOPE,OK,OK,OK,,63m0Xpt5eBZnsQ1u,
e5r10p2,10.205.0.102,OK,OK,OK,OK,NOPE,OK,OK,OK,,rfa+Arz+PpR1VNhN,
e5r10p3,10.205.0.103,OK,OK,OK,OK,NOPE,OK,OK,OK,,tFkHCZpqchtYhp3/,
e5r10p4,10.205.0.104,OK,OK,OK,OK,NOPE,OK,OK,OK,,IzwMr1U7xUklCj8S,
e5r10p5,10.205.0.105,OK,OK,OK,OK,NOPE,OK,OK,OK,,FhAW6KeunNYwd1Pv,
e5r10p6,10.205.0.106,OK,OK,OK,OK,NOPE,OK,OK,OK,,ocX5vFYyfB22C0El,
e5r10p7,10.205.0.107,OK,OK,OK,OK,NOPE,OK,OK,OK,,qqQTWRHrt5ofZNoE,
e5r10p8,10.205.0.108,OK,OK,OK,OK,NOPE,OK,OK,OK,,BMM6NIkhA0TkFI1S,
e5r10p9,10.205.0.109,OK,OK,OK,OK,NOPE,OK,OK,OK,,9Rueb9MKCuLPs3MK,
e5r10p10,10.205.0.110,OK,OK,OK,OK,NOPE,OK,OK,OK,,MtA/dsUg+9fBKdgf,
e5r10p11,10.205.0.111,OK,OK,OK,OK,NOPE,OK,OK,OK,,deSDQTVD4o6dWN9P,
e5r11p1,10.205.0.112,OK,OK,OK,OK,NOPE,OK,OK,OK,,YoRKek/DQ8ithvrE,
e5r11p2,10.205.0.113,OK,OK,OK,OK,NOPE,OK,OK,OK,,1kYT9DUsiljSAa0Q,
e5r11p3,10.205.0.114,OK,OK,OK,OK,NOPE,OK,OK,OK,,NApTCNG64M0RJRCm,
e5r11p4,10.205.0.115,OK,OK,OK,OK,NOPE,OK,OK,OK,,yg4uqZI44GYianJS,
e5r11p5,10.205.0.116,OK,OK,OK,OK,NOPE,OK,OK,OK,,Tiuwu2I7Cu7Lmv8M,
e5r11p6,10.205.0.117,OK,OK,OK,OK,NOPE,OK,OK,OK,,nJm5PmvpAMqncOu5,
e5r11p7,10.205.0.118,OK,OK,OK,OK,NOPE,OK,OK,OK,,IdrJKB3TTUcn8kn3,
e5r11p8,10.205.0.119,OK,OK,OK,OK,NOPE,OK,OK,OK,,9tm6YmhYSzwBWDOg,
e5r11p9,10.205.0.120,OK,OK,OK,OK,NOPE,OK,OK,OK,,S+/TvYSgiRIdyliW,
e5r11p10,10.205.0.121,OK,OK,OK,OK,NOPE,OK,OK,OK,,Uoy/JuCQgXuTf1rP,
e5r11p11,10.205.0.122,OK,OK,OK,OK,NOPE,OK,OK,OK,,m9ZHJXJhl6AlnM09,