First Name,Last Name,Email address,Password,Secondary Email,Work Phone 1,Home Phone 1,Mobile Phone 1,Work address 1,Home address 1,Employee Id,Employee Type,Employee Title,Manager,Department,Cost Center
Axel,Bukasa,abukasa@student.wethinkcode.co.za,ticslaci,axe.618@gmail.com,,,,,,,,Student,,,
Abdirahman,Dullane,adullane@student.wethinkcode.co.za,ypingste,ghdabdi123@gmail.com,,,,,,,,Student,,,
Archiebald Katleho,Khanye,akhanye@student.wethinkcode.co.za,caradhen,kakhanye@yahoo.com,,,,,,,,Student,,,
Asimthande,Majola,amajola@student.wethinkcode.co.za,ivespisi,asimthande2@gmail.com,,,,,,,,Student,,,
Arafat,Mashabela,amashabe@student.wethinkcode.co.za,innizats,arafatsage@gmail.com,,,,,,,,Student,,,
Afrika,Matshiye,amatshiy@student.wethinkcode.co.za,iciscone,amatshiye@gmail.com,,,,,,,,Student,,,
Andile,Mkhuma,amkhuma@student.wethinkcode.co.za,seistari,lungilekhambule19@gmail.com,,,,,,,,Student,,,
Andrew,Mokone,amokone@student.wethinkcode.co.za,ereasses,andrew.mokone@moov.life,,,,,,,,Student,,,
Ashleigh,Moodley,amoodley@student.wethinkcode.co.za,arbruiss,ashleigh.m724@gmail.com,,,,,,,,Student,,,
Alyson,Ngonyama,angonyam@student.wethinkcode.co.za,eridensw,alyson.stars@yahoo.com,,,,,,,,Student,,,
Andrew,Nocton-Smith,anocton-@student.wethinkcode.co.za,arlizook,anoctonsmith@gmail.com,,,,,,,,Student,,,
Advocate,Ntini,antini@student.wethinkcode.co.za,towstlan,advocate.ntini@gmail.com,,,,,,,,Student,,,
Asahel,Rangarira,arangari@student.wethinkcode.co.za,ionishog,zupirio@gmail.com,,,,,,,,Student,,,
Answer,Tjiane,atjiane@student.wethinkcode.co.za,heeterse,answertjiane@outlook.com,,,,,,,,Student,,,
Arlo,Wicks,awicks@student.wethinkcode.co.za,berigner,arlo.wicks@gmail.com,,,,,,,,Student,,,
Arnold,Zulu,azulu@student.wethinkcode.co.za,entesssi,arnoldzulu19@webmail.co.za,,,,,,,,Student,,,
Buntu,Dloko,bdloko@student.wethinkcode.co.za,iscovend,mrdloko@gmail.com,,,,,,,,Student,,,
Blessing Monty,Machabe,bmachabe@student.wethinkcode.co.za,rromsons,montymachabe@gmail.com,,,,,,,,Student,,,
Brenton,Moodley,bmoodley@student.wethinkcode.co.za,moctabif,juganaught72@gmail.com,,,,,,,,Student,,,
Bernadette,Ramaano,bramaano@student.wethinkcode.co.za,lsticeat,bernadette.ramaano@moov.life,,,,,,,,Student,,,
Christiaan,Faure,cfaure@student.wethinkcode.co.za,artoslyr,chjfau@gmail.com,,,,,,,,Student,,,
Craig,Feris,cferis@student.wethinkcode.co.za,noscroxs,craig.feris@gmail.com,,,,,,,,Student,,,
Chace,Green,chgreen@student.wethinkcode.co.za,tinelodu,greenchace@gmail.com,,,,,,,,Student,,,
Chazni,Katz,ckatz@student.wethinkcode.co.za,nobtolte,chazni.k9@gmail.com,,,,,,,,Student,,,
Collen,Nkosi,cnkosi@student.wethinkcode.co.za,ailstona,csnkosi@outlook.com,,,,,,,,Student,,,
Cornelius,Nolte,cnolte@student.wethinkcode.co.za,trutiver,nelis_nolte@yahoo.com,,,,,,,,Student,,,
Charl Damon,Pauwels,cpauwels@student.wethinkcode.co.za,listains,damonpauwels@gmail.com,,,,,,,,Student,,,
Carlos,Ramoroka,cramorok@student.wethinkcode.co.za,tearbond,mcramoroka@gmail.com,,,,,,,,Student,,,
Daniel,Barrow,dbarrow@student.wethinkcode.co.za,wlssimme,danielkbarrow@gmail.com,,,,,,,,Student,,,
Dipuo,Mahlake,dmahlake@student.wethinkcode.co.za,ndiustal,princessmahleks@yahoo.com,,,,,,,,Student,,,
Donald,Netshikulwe,dnetshik@student.wethinkcode.co.za,pregorsi,errolsabela@gmail.com,,,,,,,,Student,,,
Dharshan,Pillay,dpillay@student.wethinkcode.co.za,salifies,spectra.d6@gmail.com,,,,,,,,Student,,,
Dylan,Williams,dwilliam@student.wethinkcode.co.za,terfinvi,dylanw43@gmail.com,,,,,,,,Student,,,
Eduard,Cloete,ecloete@student.wethinkcode.co.za,lersials,eduardcloete@gmail.com,,,,,,,,Student,,,
Eddie,Maune,emaune@student.wethinkcode.co.za,tocurent,eddiemaune@gmail.com,,,,,,,,Student,,,
Faron,Tait,ftait@student.wethinkcode.co.za,rissssan,faron.tait@yahoo.com,,,,,,,,Student,,,
Felix Ntokozo,Thwala,fthwala@student.wethinkcode.co.za,mshinger,thwalafn@gmail.com,,,,,,,,Student,,,
Garry,Kabongo,gkabongo@student.wethinkcode.co.za,impulece,garrykabongogilbert@gmail.com,,,,,,,,Student,,,
Gift,Mtsweni,gmtsweni@student.wethinkcode.co.za,ibikosti,mtswenigift@gmail.com,,,,,,,,Student,,,
Gary,Odendaal,godendaa@student.wethinkcode.co.za,pristsky,garylhodendaal88@gmail.com,,,,,,,,Student,,,
Gaolatlhwe,Sebaetse,gsebaets@student.wethinkcode.co.za,pownedol,gsebaetse@gmail.com,,,,,,,,Student,,,
George,Sferopoulos,gsferopo@student.wethinkcode.co.za,omestski,georgesferopoulos@yahoo.com,,,,,,,,Student,,,
Goodwill,Tshekela,gtshekel@student.wethinkcode.co.za,niddeldi,budas@mailbox.co.za,,,,,,,,Student,,,
Gerhard,Van Rooyen,gvan-roo@student.wethinkcode.co.za,guichamu,hilgardvr@gmail.com,,,,,,,,Student,,,
Hendrik Alexandre,Coetzee,hcoetzee@student.wethinkcode.co.za,aprookea,alexandre.coetzee@gmail.com,,,,,,,,Student,,,
Humbelani,Libago,hlibago@student.wethinkcode.co.za,rdlemoud,libago.ndina@gmail.com,,,,,,,,Student,,,
Hilton,Mthimunye,hmthimun@student.wethinkcode.co.za,anshiess,londryservices@gmail.com,,,,,,,,Student,,,
Hendrik,Stander,hstander@student.wethinkcode.co.za,bringspl,standerhc@live.com,,,,,,,,Student,,,
Innocent,Monageng,imonagen@student.wethinkcode.co.za,onthises,innocentmonageng@gmail.com,,,,,,,,Student,,,
Jan,Badenhorst,jbadenho@student.wethinkcode.co.za,lhoupebr,jan.gabriel.badenhorst@gmail.com,,,,,,,,Student,,,
Jerome,Damhuis,jdamhuis@student.wethinkcode.co.za,logshipp,jerome.damhuis@gmail.com,,,,,,,,Student,,,
Jabulani Phillip,Lechutinyane,jlechuti@student.wethinkcode.co.za,sixionic,privite7518@gmail.com,,,,,,,,Student,,,
Joyce,Mkhosi,jmkhosi@student.wethinkcode.co.za,dessalie,vuyimkh@gmail.com,,,,,,,,Student,,,
Jabulani,Msimango,jmsimang@student.wethinkcode.co.za,encedger,msimango.jabulani@moov.life,,,,,,,,Student,,,
Joseph,Ngoma,jngoma@student.wethinkcode.co.za,crimatip,testing.jo.wtc@gmail.com,,,,,,,,Student,,,
Katlego,Mashishi,kamashis@student.wethinkcode.co.za,ginalmen,kat7450mash@gmail.com,,,,,,,,Student,,,
Kobus,Coetzee,kcoetzee@student.wethinkcode.co.za,somatish,coetzee.dhj@gmail.com,,,,,,,,Student,,,
Khomotjo,Modipa,kmodipa@student.wethinkcode.co.za,amandefl,khomotjomodipa@yahoo.com,,,,,,,,Student,,,
Kgotego Thabiso,Mosime,kmosime@student.wethinkcode.co.za,xinester,48750263@mylife.unisa.ac.za,,,,,,,,Student,,,
Khanyiso,Mthamo,kmthamo@student.wethinkcode.co.za,untsisch,kanye99mth@gmail.com,,,,,,,,Student,,,
Kuzivakwashe,Muvezwa,kmuvezwa@student.wethinkcode.co.za,edwinfer,kmuvezwa@gmail.com,,,,,,,,Student,,,
Khanyisa,Ngudle,kngudle@student.wethinkcode.co.za,hopiciat,khanyisa.ngudle.cs@gmail.com,,,,,,,,Student,,,
Karabo,Ngwato,kngwato@student.wethinkcode.co.za,onvidlem,karabocoder@gmail.com,,,,,,,,Student,,,
Karabo,Petsanyane,kpetsany@student.wethinkcode.co.za,ediaohis,petsanyanek@gmail.com,,,,,,,,Student,,,
Kyle,Routledge,kroutled@student.wethinkcode.co.za,rkingsss,kyle.routledge@yahoo.com,,,,,,,,Student,,,
Kirsty,Selesho,kselesho@student.wethinkcode.co.za,ningstss,kirsty.selesho6@gmail.com,,,,,,,,Student,,,
Khayelihle,Thwala,kthwala@student.wethinkcode.co.za,oirriate,kbravot1234@gmail.com,,,,,,,,Student,,,
Lance,Chant,lchant@student.wethinkcode.co.za,dasenwry,lancechant@yahoo.com,,,,,,,,Student,,,
Lutendo,Damuleli,ldamulel@student.wethinkcode.co.za,ioutdomm,profdamuleli@gmail.com,,,,,,,,Student,,,
Leslie,De Jager,lde-jage@student.wethinkcode.co.za,usentswo,dejagerleslie@gmail.com,,,,,,,,Student,,,
Lebohang,Kuenane,lkuenane@student.wethinkcode.co.za,nazatero,lebohang.kuenane@yahoo.com,,,,,,,,Student,,,
Lehlohonolo,Lebakeng,llebaken@student.wethinkcode.co.za,utterroo,juniorlebakeng6@gmail.com,,,,,,,,Student,,,
Lehlohonlo,Lehoko,llehoko@student.wethinkcode.co.za,riesssse,hlonilehoko29@yahoo.com,,,,,,,,Student,,,
Liberty,Mabaso,lmabaso@student.wethinkcode.co.za,persansu,liberty.mabaso@yahoo.com,,,,,,,,Student,,,
Laura,Mahlangu,lmahlang@student.wethinkcode.co.za,ailinnex,mahlangu.laura@gmail.com,,,,,,,,Student,,,
Lucky,Makhathini,lmakhath@student.wethinkcode.co.za,erageole,lsmakhathini@gmail.com,,,,,,,,Student,,,
Lehlohonolo,Mashiyane,lmashiya@student.wethinkcode.co.za,massinve,lehlohonolomashiyane@gmail.com,,,,,,,,Student,,,
Laurencia Nomathemba,Mkhwane,lmkhwane@student.wethinkcode.co.za,pithinan,mkhwaneln@gmail.com,,,,,,,,Student,,,
Lerato,Moahloli,lmoahlol@student.wethinkcode.co.za,bsigallo,moahlolilr@gmail.com,,,,,,,,Student,,,
Lerato Joy,Mofokeng,lmofoken@student.wethinkcode.co.za,ditholiz,leratojoymofokeng@gmail.com,,,,,,,,Student,,,
Linda,Mucassi,lmucassi@student.wethinkcode.co.za,ntildels,lindasmucassi@gmail.com,,,,,,,,Student,,,
Lungisa,Nduna,lnduna@student.wethinkcode.co.za,elessall,nduna.lungisa@gmail.com,,,,,,,,Student,,,
Lithamsanqa,Nosekeleza,lnosekel@student.wethinkcode.co.za,giagodsl,lithamsanqalitha1@gmail.com,,,,,,,,Student,,,
Liam,Smith,lsmith@student.wethinkcode.co.za,eedniess,liamsmith96@gmail.com,,,,,,,,Student,,,
Liam,Streak,lstreak@student.wethinkcode.co.za,ciricarl,liam.streak@gmail.com,,,,,,,,Student,,,
Leonard,Van Gend,lvan-gen@student.wethinkcode.co.za,voldshum,leonardvg@me.com,,,,,,,,Student,,,
Marco,Fernandes,mafernan@student.wethinkcode.co.za,kertateu,gamer.360ps@gmail.com,,,,,,,,Student,,,
Mareka,Kwena,makwena@student.wethinkcode.co.za,gholdend,lloydkwe@gmail.com,,,,,,,,Student,,,
Mbulelo,Damba,mdamba@student.wethinkcode.co.za,ledstrea,mabuda19@gmail.com,,,,,,,,Student,,,
Mlungisi,Gwala,mgwala@student.wethinkcode.co.za,arearcer,mgmgwala@gmail.com,,,,,,,,Student,,,
Mpho,Kgosisejo,mkgosise@student.wethinkcode.co.za,glocarch,mpho.kgosisejo@hotmail.com,,,,,,,,Student,,,
Keegan,Kinnear,mkinnear@student.wethinkcode.co.za,erfellin,keegan.nmkinnear@gmail.com,,,,,,,,Student,,,
Mtosi,Lehata,mlehata@student.wethinkcode.co.za,rastarme,lehata.mtosi@gmail.com,,,,,,,,Student,,,
Murray,Macdonald,mmacdona@student.wethinkcode.co.za,cullygme,murraypost@gmail.com,,,,,,,,Student,,,
Mushagi,Mayibo,mmayibo@student.wethinkcode.co.za,amestsia,mushagim@gmail.com,,,,,,,,Student,,,
Mthokozisi,Mohaule,mmohaule@student.wethinkcode.co.za,lificiti,mtoxlee@gmail.com,,,,,,,,Student,,,
Mojalefa,Mohlamonyane,mmohlamo@student.wethinkcode.co.za,rotfierg,mojalefaobed@yahoo.com,,,,,,,,Student,,,
Modisaotsile,Mokgethi,mmokgeth@student.wethinkcode.co.za,salectle,modisamokgethi@gmail.com,,,,,,,,Student,,,
Makhado,Mphephu,mmphephu@student.wethinkcode.co.za,readomph,cado7m@gmail.com,,,,,,,,Student,,,
Mbulelo,Mpofana,mmpofana@student.wethinkcode.co.za,inalling,mnmpofana@gmail.com,,,,,,,,Student,,,
Michael,Mpofu,mmpofu@student.wethinkcode.co.za,lersurfo,sike95@ymail.com,,,,,,,,Student,,,
Mfundo,Mthethwa,mmthethw@student.wethinkcode.co.za,inguensi,mfundoyamanyambose@gmail.com,,,,,,,,Student,,,
Malebo,Mthombeni,mmthombe@student.wethinkcode.co.za,unketess,malebomthombeni@gmail.com,,,,,,,,Student,,,
Mudenda,Muntanga,mmuntang@student.wethinkcode.co.za,ettaless,take_care_md@live.com,,,,,,,,Student,,,
Mudi,Muteba,mmuteba@student.wethinkcode.co.za,eckstima,mudi.muteba@gmail.com,,,,,,,,Student,,,
Melissa,Naidoo,mnaidoo@student.wethinkcode.co.za,aunorect,melissanaidoo04@gmail.com,,,,,,,,Student,,,
Mbongeni,Ndlovu,mndlovu@student.wethinkcode.co.za,oomporap,mbongeni.ndlovu007@gmail.com,,,,,,,,Student,,,
Mashudu,Nepfumbada,mnepfumb@student.wethinkcode.co.za,trunnial,pfumbadam@hotmail.com,,,,,,,,Student,,,
Malusi,Ngubane,mngubane@student.wethinkcode.co.za,uadeplab,mngubane26@gmail.com,,,,,,,,Student,,,
Mnqobi,Nsele,mnsele@student.wethinkcode.co.za,atingtor,mnqobinsele2@gmail.com,,,,,,,,Student,,,
Mapumba Mark,Ntumba,mntumba@student.wethinkcode.co.za,atessedd,xl-mark@outlook.com,,,,,,,,Student,,,
Mongameli,Nyembe,mnyembe@student.wethinkcode.co.za,stalated,201207635@student.uj.ac.za,,,,,,,,Student,,,
Mpho,Phaka,mphaka@student.wethinkcode.co.za,itirtish,phaka.mpho@gmail.com,,,,,,,,Student,,,
Megan,Schempers,mschempe@student.wethinkcode.co.za,ortiesci,megan.schempers@gmail.com,,,,,,,,Student,,,
Mark,Wingrove,mwingrov@student.wethinkcode.co.za,ingsalks,mwingrove6011@gmail.com,,,,,,,,Student,,,
Ngoy,Banza,ngbanza@student.wethinkcode.co.za,sentswee,dngoyb@gmail.com,,,,,,,,Student,,,
Nicole Tshepo,Dilotsothle,nidilots@student.wethinkcode.co.za,hydroyan,n.ntefang@outlook.com,,,,,,,,Student,,,
Nkululeko,Mabe,nmabe@student.wethinkcode.co.za,pentattl,nkulimokgele@gmail.com,,,,,,,,Student,,,
Njabulo,Majozi,nmajozi@student.wethinkcode.co.za,oostsati,mr.enmajozi@gmail.com,,,,,,,,Student,,,
Nompumelelo,Maluleke,nmalulek@student.wethinkcode.co.za,ndeartle,malulekenw8@gmail.com,,,,,,,,Student,,,
Naledi,Matutoane,nmatutoa@student.wethinkcode.co.za,eporaste,sandram@retailpeople.co.za,,,,,,,,Student,,,
Nhlakanipho,Mbotho,nmbotho@student.wethinkcode.co.za,ggingark,nhlakambotho@gmail.com,,,,,,,,Student,,,
Ndumiso Braveman,Mlambo,nmlambo@student.wethinkcode.co.za,iriersau,covermusic.es@gmail.com,,,,,,,,Student,,,
Neo,Mtimkulu,nmtimkul@student.wethinkcode.co.za,sigonscr,spokesneo@gmail.com,,,,,,,,Student,,,
Nomvula,Ngwenya,nngwenya@student.wethinkcode.co.za,johsagen,gwengwenya@gmail.com,,,,,,,,Student,,,
Ntokozo,Nkanyane,nnkanyan@student.wethinkcode.co.za,vatonsig,jafta.ntokozo@gmail.com,,,,,,,,Student,,,
Nohamba,Nqisha,nnqisha@student.wethinkcode.co.za,mmystori,mnqisha@gmail.com,,,,,,,,Student,,,
Nkosinathi Givenson,Ntuli,nntuli@student.wethinkcode.co.za,enishisa,nkosinathintuli26@gmail.com,,,,,,,,Student,,,
Nyameko,Rarane,nrarane@student.wethinkcode.co.za,ogrowsti,n_rarane@yahoo.com,,,,,,,,Student,,,
Ntombikayise,Sikhosana,nsikhosa@student.wethinkcode.co.za,atringsb,ntombi55skhosana@gmail.com,,,,,,,,Student,,,
Ndwakhulu,Sikhwari,nsikhwar@student.wethinkcode.co.za,ructuals,westeye77@gmail.com,,,,,,,,Student,,,
Oliver Reginald,Meyer,omeyer@student.wethinkcode.co.za,solaower,meyeroliver9401@gmail.com,,,,,,,,Student,,,
Paul,Mashilangwako,pamashil@student.wethinkcode.co.za,ndcaudse,kgolanepaul@gmail.com,,,,,,,,Student,,,
Pieter Juan,De Bruin,pde-brui@student.wethinkcode.co.za,ecoreedi,juancbr15@gmail.com,,,,,,,,Student,,,
Philani,Mahele,pmahele@student.wethinkcode.co.za,lestings,philanimahele@gmail.com,,,,,,,,Student,,,
Prudence,Mahlangu,pmahlang@student.wethinkcode.co.za,bnarldeb,prudence.mahlangu@moov.life,,,,,,,,Student,,,
Phuti,Matle,pmatle@student.wethinkcode.co.za,ootessil,glory.phuti@gmail.com,,,,,,,,Student,,,
Pule,Morifi,pmorifi@student.wethinkcode.co.za,overshme,pumelo.kp@gmail.com,,,,,,,,Student,,,
Phumudzo,Nevhutala,pnevhuta@student.wethinkcode.co.za,ibsights,phumie.nevhutala@gmail.com,,,,,,,,Student,,,
Preston,Mvinjelwa,prmvinje@student.wethinkcode.co.za,oartanes,prestonmvinjelwa23@gmail.com,,,,,,,,Student,,,
Patrick,Russell,prussell@student.wethinkcode.co.za,inourium,pdrussell011@gmail.com,,,,,,,,Student,,,
Quentin,Manamela,qmanamel@student.wethinkcode.co.za,hoodifyi,qkotsedi@gmail.com,,,,,,,,Student,,,
Randolph,Aguanomwan,raguanom@student.wethinkcode.co.za,appriase,osasforchrist01@gmail.com,,,,,,,,Student,,,
Jeanette Henriette,Burger,rburger@student.wethinkcode.co.za,owdessal,empoweryourself36@gmail.com,,,,,,,,Student,,,
Ruan,De Beer,rde-beer@student.wethinkcode.co.za,abitedin,ruandb8719@gmail.com,,,,,,,,Student,,,
Rozanne,De Jager,rde-jage@student.wethinkcode.co.za,seastrin,rozannedejager@skewd.co.za,,,,,,,,Student,,,
Richard,De Ponte,rde-pont@student.wethinkcode.co.za,umsoatst,richard7deponte@gmail.com,,,,,,,,Student,,,
Rinus,Erasmus,rerasmus@student.wethinkcode.co.za,esssenta,maxerasmus@yahoo.com,,,,,,,,Student,,,
Rodger,Francis,rfrancis@student.wethinkcode.co.za,legromes,rodgef101@gmail.com,,,,,,,,Student,,,
Ryan,Heukelman,rheukelm@student.wethinkcode.co.za,eleilers,ryan.heukelman@gmail.com,,,,,,,,Student,,,
Rapula,Maake,rmaake@student.wethinkcode.co.za,arooffes,rapula.maake@gmail.com,,,,,,,,Student,,,
Robert,Murdoch,rmurdoch@student.wethinkcode.co.za,tniatern,oatsrobert81@gmail.com,,,,,,,,Student,,,
Rorisang,Nchake,rnchake@student.wethinkcode.co.za,atimpert,rorisang.nchake@gmail.com,,,,,,,,Student,,,
Reuben,Njikho,rnjikho@student.wethinkcode.co.za,rgesseet,nreuben27@outlook.com,,,,,,,,Student,,,
Ryan,Sheasby,rsheasby@student.wethinkcode.co.za,shonedis,ryan27968@gmail.com,,,,,,,,Student,,,
Siya,Hadebe,shadebe@student.wethinkcode.co.za,rmunkful,siaydebe@gmail.com,,,,,,,,Student,,,
Siphiwe,Dlamini,sidlamin@student.wethinkcode.co.za,dinnized,sizzus.sa@gmail.com,,,,,,,,Student,,,
Sibongakonke,Mthethwa,simtheth@student.wethinkcode.co.za,stionsss,gsmanqele@gmail.com,,,,,,,,Student,,,
Stephans Nassion,Kgatle,skgatle@student.wethinkcode.co.za,oussiall,stephans.kgatle@gmail.com,,,,,,,,Student,,,
Salthiel Khumo,Letlape,sletlape@student.wethinkcode.co.za,ardsmodu,2.skletl@gmail.com,,,,,,,,Student,,,
Sizakele,Masekgwaneng,smasekgw@student.wethinkcode.co.za,pidamist,sizakelegp8@gmail.com,,,,,,,,Student,,,
Siyanda Kusaselihle,Mhlongo,smhlongo@student.wethinkcode.co.za,rippouse,kuyandaokuhle@gmail.com,,,,,,,,Student,,,
Steven Ntokozo,Mthimunye,smthimun@student.wethinkcode.co.za,itsyloch,mtimunyesteven@gmail.com,,,,,,,,Student,,,
Sihle,Mtolo,smtolo@student.wethinkcode.co.za,ncession,mscihlez@gmail.com,,,,,,,,Student,,,
Siphelele,Myeni,smyeni@student.wethinkcode.co.za,izzinkin,21323292@dut4life.ac.za,,,,,,,,Student,,,
Sizwe,Ncube,sncube@student.wethinkcode.co.za,urnobivi,micanjohnscoderx@gmail.com,,,,,,,,Student,,,
Sive,Sandla,ssandla@student.wethinkcode.co.za,lingssil,sivesandla@live.com,,,,,,,,Student,,,
Spencer,Schafer,sschafer@student.wethinkcode.co.za,reconsor,spencerschafer@gmail.com,,,,,,,,Student,,,
Sipho,Sefeane,ssefeane@student.wethinkcode.co.za,hintions,msefeane@gmail.com,,,,,,,,Student,,,
Senaki,Sekese,ssekese@student.wethinkcode.co.za,raliests,senaki.sekese@moov.life,,,,,,,,Student,,,
Sanele,Sibiya,ssibiya@student.wethinkcode.co.za,iatastsu,sanelesazi@gmail.com,,,,,,,,Student,,,
Sean,Young,syoung@student.wethinkcode.co.za,araptess,seandayoungone@gmail.com,,,,,,,,Student,,,
S'Thandwa,Zama,szama@student.wethinkcode.co.za,opermist,usthandwa@gmail.com,,,,,,,,Student,,,
Tjelaje,Asikimu,tasikimu@student.wethinkcode.co.za,unicanol,tjelaje.asikimu@moov.life,,,,,,,,Student,,,
Tyron,Barlow-Kearsley,tbarlow-@student.wethinkcode.co.za,epknessa,tbkearsley@gmail.com,,,,,,,,Student,,,
Thomas,Beer,tbeer@student.wethinkcode.co.za,mokeelsi,thomasbeer420@gmail.com,,,,,,,,Student,,,
Thoriso,Motaung,thmotaun@student.wethinkcode.co.za,netistys,thorimomotaung@gmail.com,,,,,,,,Student,,,
Thulani,Zondo,thzondo@student.wethinkcode.co.za,halicaph,u15200796@tuks.co.za,,,,,,,,Student,,,
Tyler,Maclachlan,tmaclach@student.wethinkcode.co.za,inforeva,tyler.maclachlan@gmail.com,,,,,,,,Student,,,
Tsholofelo,Makgale,tmakgale@student.wethinkcode.co.za,itismsop,tsholofelomakgale@outlook.com,,,,,,,,Student,,,
Tsundukani,Makhubela,tmakhube@student.wethinkcode.co.za,onsetysa,tsundu387@outlook.com,,,,,,,,Student,,,
Tinyiko,Masinga,tmasinga@student.wethinkcode.co.za,wincerma,tinyikomasinga20@gmail.com,,,,,,,,Student,,,
Tumelo,Matlala,tmatlala@student.wethinkcode.co.za,achsorst,benedict.matlala@outlook.com,,,,,,,,Student,,,
Thato,Mekwa,tmekwa@student.wethinkcode.co.za,hecracys,tmekwa36@gmail.com,,,,,,,,Student,,,
Thamsanca,Mnune,tmnune@student.wethinkcode.co.za,estionoe,mnunethamsanca@gmail.com,,,,,,,,Student,,,
Thabelo,Molokana,tmolokan@student.wethinkcode.co.za,ronsingu,tmolokana@gmail.com,,,,,,,,Student,,,
Terence,Mwalo,tmwalo@student.wethinkcode.co.za,unceaffi,vuyotm@gmail.com,,,,,,,,Student,,,
Tshepang,Ntoampe,tntoampe@student.wethinkcode.co.za,frerulti,tshepang.ntoampe@moov.life,,,,,,,,Student,,,
Tumelo,Ratefane,tratefan@student.wethinkcode.co.za,nercesch,ratefane.tumi@gmail.com,,,,,,,,Student,,,
Tshepo,Tshabalala,ttshabal@student.wethinkcode.co.za,wmannics,tshepo.tshabalala@moov.life,,,,,,,,Student,,,
Tshilidzi,Tshivhula,ttshivhu@student.wethinkcode.co.za,atannite,pboyfunclub@yandex.com,,,,,,,,Student,,,
Vaughan,Langman,vlangman@student.wethinkcode.co.za,glyanses,vlangman00@gmail.com,,,,,,,,Student,,,
Vuyolewethu,Mhlotshane,vmhlotsh@student.wethinkcode.co.za,leravdat,raooneeb@yahoo.com,,,,,,,,Student,,,
Vusimuzi,Ngwalazi,vngwalaz@student.wethinkcode.co.za,ntsmulgi,vusie.ngwalazi@gmail.com,,,,,,,,Student,,,
Vuyani,Nxele,vnxele@student.wethinkcode.co.za,proscath,lucidreamrxxii@gmail.com,,,,,,,,Student,,,
Vusimuzi,Sibanyoni,vsibanyo@student.wethinkcode.co.za,pentsitt,percyfreshesiba@gmail.com,,,,,,,,Student,,,
Wisani,Khosa,wkhosa@student.wethinkcode.co.za,radvelsd,wizro@gmx.com,,,,,,,,Student,,,
William,Phokompe,wphokomp@student.wethinkcode.co.za,onslings,pthapelo@ymail.com,,,,,,,,Student,,,
Wesley,Von Graevenitz,wvon-gra@student.wethinkcode.co.za,ricistou,wesleygordon.vong@gmail.com,,,,,,,,Student,,,
Yen-Ho,Chen,yechen@student.wethinkcode.co.za,gestrani,94yenho@gmail.com,,,,,,,,Student,,,
Zenande,Godongwana,zgodongw@student.wethinkcode.co.za,fultdons,zenandegng@gmail.com,,,,,,,,Student,,,
Zakhele,Hakonze,zhakonze@student.wethinkcode.co.za,essmstia,d.hakonze@yahoo.com,,,,,,,,Student,,,
Zodwa,Phakathi,zphakath@student.wethinkcode.co.za,eysidged,lcwcb2@gmail.com,,,,,,,,Student,,,